﻿{

  "version": "1.0.0-*",
  "testRunner": "xunit",
  "dependencies": {
    "xunit": "2.2.0-beta2-build3300",
    "TwitterStatProj": "1.0.0-*",
    "dotnet-test-xunit": "2.2.0-preview2-build1029",
  },
  "frameworks": {
    "netcoreapp1.0": {
      "dependencies": {
        "Microsoft.NETCore.App": {
          "type": "platform",
          "version": "1.0.1"
        },
        "Moq": "4.6.36-*"
      }
    }
  },
  "buildOptions": {
    "copyToOutput": {
      "include": [ "xunit.runner.json" ]
    }
  }

}